^C:\USERS\SEONGHO\SOURCE\REPOS\TEAMPROJECT\TEAMPROJECT\DEBUG\MAINSCENE.OBJ
C:\USERS\SEONGHO\SOURCE\REPOS\TEAMPROJECT\DEBUG\TEAMPROJECT.EXE
C:\USERS\SEONGHO\SOURCE\REPOS\TEAMPROJECT\DEBUG\TEAMPROJECT.ILK
C:\USERS\SEONGHO\SOURCE\REPOS\TEAMPROJECT\DEBUG\TEAMPROJECT.PDB
